{"failedCount":0,"prefixedPath":"classpath:com\/example\/GradleGroovy\/user.get\/user-get.feature","packageQualifiedName":"com.example.GradleGroovy.user.get.user-get","loopIndex":-1,"relativePath":"com\/example\/GradleGroovy\/user.get\/user-get.feature","scenarioResults":[{"sectionIndex":0,"stepResults":[{"result":{"nanos":54939200,"millis":54.9392,"status":"passed"},"step":{"background":true,"line":4,"prefix":"*","index":0,"text":"url \"https:\/\/reqres.in\""}},{"result":{"nanos":1361100,"millis":1.3611,"status":"passed"},"step":{"background":true,"line":5,"prefix":"*","index":1,"text":"header Accept = \"application\/json\""}},{"result":{"nanos":2863200,"millis":2.8632,"status":"passed"},"step":{"line":7,"prefix":"Given","index":0,"text":"url \"https:\/\/reqres.in\"+\"\/api\/users\/\"+\"2\""}},{"result":{"nanos":503917700,"millis":503.9177,"status":"passed"},"step":{"line":8,"prefix":"When","index":1,"text":"method get"},"stepLog":"12:07:08.758 request:\n1 > GET https:\/\/reqres.in\/api\/users\/2\n1 > Accept: application\/json\n1 > Host: reqres.in\n1 > Connection: Keep-Alive\n1 > User-Agent: Apache-HttpClient\/4.5.14 (Java\/19.0.1)\n1 > Accept-Encoding: gzip,deflate\n\n\n12:07:09.037 response time in milliseconds: 269\n1 < 200\n1 < Date: Sat, 24 Jun 2023 17:07:09 GMT\n1 < Content-Type: application\/json; charset=utf-8\n1 < Transfer-Encoding: chunked\n1 < Connection: keep-alive\n1 < X-Powered-By: Express\n1 < Access-Control-Allow-Origin: *\n1 < Etag: W\/\"118-pbdwwFo9SKNhD3Lx5iHJyngpq00\"\n1 < Via: 1.1 vegur\n1 < Cache-Control: max-age=14400\n1 < CF-Cache-Status: HIT\n1 < Age: 572\n1 < Report-To: {\"endpoints\":[{\"url\":\"https:\\\/\\\/a.nel.cloudflare.com\\\/report\\\/v3?s=vnH%2FvbH1piLkKdSDE47ufa%2Bl4lsGg0BnMVEVgmtGXjQfpyFxZWMbDI%2BY6k%2Bxzzc%2FoAPJRFC2hhBqANuYhNGDpoB1wt5tlm8E4HmYSn1hf1uEN%2FG3da6wHAi9Gw%3D%3D\"}],\"group\":\"cf-nel\",\"max_age\":604800}\n1 < NEL: {\"success_fraction\":0,\"report_to\":\"cf-nel\",\"max_age\":604800}\n1 < Vary: Accept-Encoding\n1 < Server: cloudflare\n1 < CF-RAY: 7dc690bf7e00384c-MAD\n{\"data\":{\"id\":2,\"email\":\"janet.weaver@reqres.in\",\"first_name\":\"Janet\",\"last_name\":\"Weaver\",\"avatar\":\"https:\/\/reqres.in\/img\/faces\/2-image.jpg\"},\"support\":{\"url\":\"https:\/\/reqres.in\/#support-heading\",\"text\":\"To keep ReqRes free, contributions towards server costs are appreciated!\"}}\n\n"},{"result":{"nanos":4425900,"millis":4.4259,"status":"passed"},"step":{"line":9,"prefix":"Then","index":2,"text":"status 200"}},{"result":{"nanos":56152800,"millis":56.1528,"status":"passed"},"step":{"line":10,"prefix":"And","index":3,"text":"print response"},"stepLog":"12:07:09.123 [print] {\n  \"data\": {\n    \"id\": 2,\n    \"email\": \"janet.weaver@reqres.in\",\n    \"first_name\": \"Janet\",\n    \"last_name\": \"Weaver\",\n    \"avatar\": \"https:\/\/reqres.in\/img\/faces\/2-image.jpg\"\n  },\n  \"support\": {\n    \"url\": \"https:\/\/reqres.in\/#support-heading\",\n    \"text\": \"To keep ReqRes free, contributions towards server costs are appreciated!\"\n  }\n}\n \n"},{"result":{"nanos":2386700,"millis":2.3867,"status":"passed"},"step":{"line":11,"prefix":"And","index":4,"text":"print responseStatus"},"stepLog":"12:07:09.127 [print] 200 \n"},{"result":{"nanos":1208200,"millis":1.2082,"status":"passed"},"step":{"line":12,"prefix":"And","index":5,"text":"print responseTime"},"stepLog":"12:07:09.129 [print] 269 \n"},{"result":{"nanos":1866300,"millis":1.8663,"status":"passed"},"step":{"line":13,"prefix":"And","index":6,"text":"print responseHeaders"},"stepLog":"12:07:09.131 [print] {\n  \"Date\": [\n    \"Sat, 24 Jun 2023 17:07:09 GMT\"\n  ],\n  \"Content-Type\": [\n    \"application\/json; charset=utf-8\"\n  ],\n  \"Transfer-Encoding\": [\n    \"chunked\"\n  ],\n  \"Connection\": [\n    \"keep-alive\"\n  ],\n  \"X-Powered-By\": [\n    \"Express\"\n  ],\n  \"Access-Control-Allow-Origin\": [\n    \"*\"\n  ],\n  \"Etag\": [\n    \"W\/\\\"118-pbdwwFo9SKNhD3Lx5iHJyngpq00\\\"\"\n  ],\n  \"Via\": [\n    \"1.1 vegur\"\n  ],\n  \"Cache-Control\": [\n    \"max-age=14400\"\n  ],\n  \"CF-Cache-Status\": [\n    \"HIT\"\n  ],\n  \"Age\": [\n    \"572\"\n  ],\n  \"Report-To\": [\n    \"{\\\"endpoints\\\":[{\\\"url\\\":\\\"https:\\\\\/\\\\\/a.nel.cloudflare.com\\\\\/report\\\\\/v3?s=vnH%2FvbH1piLkKdSDE47ufa%2Bl4lsGg0BnMVEVgmtGXjQfpyFxZWMbDI%2BY6k%2Bxzzc%2FoAPJRFC2hhBqANuYhNGDpoB1wt5tlm8E4HmYSn1hf1uEN%2FG3da6wHAi9Gw%3D%3D\\\"}],\\\"group\\\":\\\"cf-nel\\\",\\\"max_age\\\":604800}\"\n  ],\n  \"NEL\": [\n    \"{\\\"success_fraction\\\":0,\\\"report_to\\\":\\\"cf-nel\\\",\\\"max_age\\\":604800}\"\n  ],\n  \"Vary\": [\n    \"Accept-Encoding\"\n  ],\n  \"Server\": [\n    \"cloudflare\"\n  ],\n  \"CF-RAY\": [\n    \"7dc690bf7e00384c-MAD\"\n  ],\n  \"Set-Cookie\": [\n  ]\n}\n \n"},{"result":{"nanos":1914300,"millis":1.9143,"status":"passed"},"step":{"line":14,"prefix":"And","index":7,"text":"print responseCookies"},"stepLog":"12:07:09.133 [print] {\n}\n \n"}],"executorName":"main","line":6,"name":"Get a user without background","description":"","durationMillis":631.0354,"startTime":1687626428482,"failed":false,"refId":"[1:6]","endTime":1687626429133,"exampleIndex":-1},{"sectionIndex":1,"stepResults":[{"result":{"nanos":402100,"millis":0.4021,"status":"passed"},"step":{"background":true,"line":4,"prefix":"*","index":0,"text":"url \"https:\/\/reqres.in\""}},{"result":{"nanos":353300,"millis":0.3533,"status":"passed"},"step":{"background":true,"line":5,"prefix":"*","index":1,"text":"header Accept = \"application\/json\""}},{"result":{"nanos":608300,"millis":0.6083,"status":"passed"},"step":{"line":17,"prefix":"Given","index":0,"text":"path \"\/api\/users\/\"+\"2\""}},{"result":{"nanos":168099700,"millis":168.0997,"status":"passed"},"step":{"line":18,"prefix":"When","index":1,"text":"method get"},"stepLog":"12:07:09.143 request:\n1 > GET https:\/\/reqres.in\/api\/users\/2\n1 > Accept: application\/json\n1 > Host: reqres.in\n1 > Connection: Keep-Alive\n1 > User-Agent: Apache-HttpClient\/4.5.14 (Java\/19.0.1)\n1 > Accept-Encoding: gzip,deflate\n\n\n12:07:09.308 response time in milliseconds: 164\n1 < 200\n1 < Date: Sat, 24 Jun 2023 17:07:09 GMT\n1 < Content-Type: application\/json; charset=utf-8\n1 < Transfer-Encoding: chunked\n1 < Connection: keep-alive\n1 < X-Powered-By: Express\n1 < Access-Control-Allow-Origin: *\n1 < Etag: W\/\"118-pbdwwFo9SKNhD3Lx5iHJyngpq00\"\n1 < Via: 1.1 vegur\n1 < Cache-Control: max-age=14400\n1 < CF-Cache-Status: HIT\n1 < Age: 1162\n1 < Report-To: {\"endpoints\":[{\"url\":\"https:\\\/\\\/a.nel.cloudflare.com\\\/report\\\/v3?s=AdRbHA4bIPF3T5W1HYBRRZUHqJ6th3jlTOXJqoLI3NU7AlPWj51MR9tI239mySj%2BfpS7Gq8OKAYYzmD8fOWfA9YAbzC8I%2BqZAHuW2RIkteLGoznMle46%2BxOdFA%3D%3D\"}],\"group\":\"cf-nel\",\"max_age\":604800}\n1 < NEL: {\"success_fraction\":0,\"report_to\":\"cf-nel\",\"max_age\":604800}\n1 < Vary: Accept-Encoding\n1 < Server: cloudflare\n1 < CF-RAY: 7dc690c1a8d9367c-MAD\n{\"data\":{\"id\":2,\"email\":\"janet.weaver@reqres.in\",\"first_name\":\"Janet\",\"last_name\":\"Weaver\",\"avatar\":\"https:\/\/reqres.in\/img\/faces\/2-image.jpg\"},\"support\":{\"url\":\"https:\/\/reqres.in\/#support-heading\",\"text\":\"To keep ReqRes free, contributions towards server costs are appreciated!\"}}\n\n"},{"result":{"nanos":19500,"millis":0.0195,"status":"passed"},"step":{"line":19,"prefix":"Then","index":2,"text":"status 200"}},{"result":{"nanos":800800,"millis":0.8008,"status":"passed"},"step":{"line":20,"prefix":"And","index":3,"text":"print response"},"stepLog":"12:07:09.311 [print] {\n  \"data\": {\n    \"id\": 2,\n    \"email\": \"janet.weaver@reqres.in\",\n    \"first_name\": \"Janet\",\n    \"last_name\": \"Weaver\",\n    \"avatar\": \"https:\/\/reqres.in\/img\/faces\/2-image.jpg\"\n  },\n  \"support\": {\n    \"url\": \"https:\/\/reqres.in\/#support-heading\",\n    \"text\": \"To keep ReqRes free, contributions towards server costs are appreciated!\"\n  }\n}\n \n"}],"executorName":"main","line":16,"name":"Get a user wit background","description":"","durationMillis":170.2837,"startTime":1687626429140,"failed":false,"refId":"[2:16]","endTime":1687626429311,"exampleIndex":-1},{"sectionIndex":2,"stepResults":[{"result":{"nanos":345700,"millis":0.3457,"status":"passed"},"step":{"background":true,"line":4,"prefix":"*","index":0,"text":"url \"https:\/\/reqres.in\""}},{"result":{"nanos":143600,"millis":0.1436,"status":"passed"},"step":{"background":true,"line":5,"prefix":"*","index":1,"text":"header Accept = \"application\/json\""}},{"result":{"nanos":403200,"millis":0.4032,"status":"passed"},"step":{"line":23,"prefix":"Given","index":0,"text":"path \"\/api\/users\/\""}},{"result":{"nanos":3620300,"millis":3.6203,"status":"passed"},"step":{"line":24,"prefix":"And","index":1,"text":"param page = 2"}},{"result":{"nanos":157437500,"millis":157.4375,"status":"passed"},"step":{"line":25,"prefix":"When","index":2,"text":"method get"},"stepLog":"12:07:09.325 request:\n1 > GET https:\/\/reqres.in\/api\/users?page=2\n1 > Accept: application\/json\n1 > Host: reqres.in\n1 > Connection: Keep-Alive\n1 > User-Agent: Apache-HttpClient\/4.5.14 (Java\/19.0.1)\n1 > Accept-Encoding: gzip,deflate\n\n\n12:07:09.476 response time in milliseconds: 149\n1 < 200\n1 < Date: Sat, 24 Jun 2023 17:07:09 GMT\n1 < Content-Type: application\/json; charset=utf-8\n1 < Transfer-Encoding: chunked\n1 < Connection: keep-alive\n1 < X-Powered-By: Express\n1 < Access-Control-Allow-Origin: *\n1 < Etag: W\/\"406-ut0vzoCuidvyMf8arZpMpJ6ZRDw\"\n1 < Via: 1.1 vegur\n1 < Cache-Control: max-age=14400\n1 < CF-Cache-Status: HIT\n1 < Age: 45\n1 < Report-To: {\"endpoints\":[{\"url\":\"https:\\\/\\\/a.nel.cloudflare.com\\\/report\\\/v3?s=DB9RUp0qYJYWKdRD%2BV0Q0KNb2In7urHH3zahk4WnXTnoktJ00PgeXQrIM0EWZQbkFwmMbmFZSEsb88y6l0yY2JMfG9ajw6ySrvh4bOLema1%2FVBUAge2fOrrdAg%3D%3D\"}],\"group\":\"cf-nel\",\"max_age\":604800}\n1 < NEL: {\"success_fraction\":0,\"report_to\":\"cf-nel\",\"max_age\":604800}\n1 < Vary: Accept-Encoding\n1 < Server: cloudflare\n1 < CF-RAY: 7dc690c2ac456669-MAD\n{\"page\":2,\"per_page\":6,\"total\":12,\"total_pages\":2,\"data\":[{\"id\":7,\"email\":\"michael.lawson@reqres.in\",\"first_name\":\"Michael\",\"last_name\":\"Lawson\",\"avatar\":\"https:\/\/reqres.in\/img\/faces\/7-image.jpg\"},{\"id\":8,\"email\":\"lindsay.ferguson@reqres.in\",\"first_name\":\"Lindsay\",\"last_name\":\"Ferguson\",\"avatar\":\"https:\/\/reqres.in\/img\/faces\/8-image.jpg\"},{\"id\":9,\"email\":\"tobias.funke@reqres.in\",\"first_name\":\"Tobias\",\"last_name\":\"Funke\",\"avatar\":\"https:\/\/reqres.in\/img\/faces\/9-image.jpg\"},{\"id\":10,\"email\":\"byron.fields@reqres.in\",\"first_name\":\"Byron\",\"last_name\":\"Fields\",\"avatar\":\"https:\/\/reqres.in\/img\/faces\/10-image.jpg\"},{\"id\":11,\"email\":\"george.edwards@reqres.in\",\"first_name\":\"George\",\"last_name\":\"Edwards\",\"avatar\":\"https:\/\/reqres.in\/img\/faces\/11-image.jpg\"},{\"id\":12,\"email\":\"rachel.howell@reqres.in\",\"first_name\":\"Rachel\",\"last_name\":\"Howell\",\"avatar\":\"https:\/\/reqres.in\/img\/faces\/12-image.jpg\"}],\"support\":{\"url\":\"https:\/\/reqres.in\/#support-heading\",\"text\":\"To keep ReqRes free, contributions towards server costs are appreciated!\"}}\n\n"},{"result":{"nanos":70400,"millis":0.0704,"status":"passed"},"step":{"line":26,"prefix":"Then","index":3,"text":"status 200"}},{"result":{"nanos":2179100,"millis":2.1791,"status":"passed"},"step":{"line":27,"prefix":"And","index":4,"text":"print response"},"stepLog":"12:07:09.483 [print] {\n  \"page\": 2,\n  \"per_page\": 6,\n  \"total\": 12,\n  \"total_pages\": 2,\n  \"data\": [\n    {\n      \"id\": 7,\n      \"email\": \"michael.lawson@reqres.in\",\n      \"first_name\": \"Michael\",\n      \"last_name\": \"Lawson\",\n      \"avatar\": \"https:\/\/reqres.in\/img\/faces\/7-image.jpg\"\n    },\n    {\n      \"id\": 8,\n      \"email\": \"lindsay.ferguson@reqres.in\",\n      \"first_name\": \"Lindsay\",\n      \"last_name\": \"Ferguson\",\n      \"avatar\": \"https:\/\/reqres.in\/img\/faces\/8-image.jpg\"\n    },\n    {\n      \"id\": 9,\n      \"email\": \"tobias.funke@reqres.in\",\n      \"first_name\": \"Tobias\",\n      \"last_name\": \"Funke\",\n      \"avatar\": \"https:\/\/reqres.in\/img\/faces\/9-image.jpg\"\n    },\n    {\n      \"id\": 10,\n      \"email\": \"byron.fields@reqres.in\",\n      \"first_name\": \"Byron\",\n      \"last_name\": \"Fields\",\n      \"avatar\": \"https:\/\/reqres.in\/img\/faces\/10-image.jpg\"\n    },\n    {\n      \"id\": 11,\n      \"email\": \"george.edwards@reqres.in\",\n      \"first_name\": \"George\",\n      \"last_name\": \"Edwards\",\n      \"avatar\": \"https:\/\/reqres.in\/img\/faces\/11-image.jpg\"\n    },\n    {\n      \"id\": 12,\n      \"email\": \"rachel.howell@reqres.in\",\n      \"first_name\": \"Rachel\",\n      \"last_name\": \"Howell\",\n      \"avatar\": \"https:\/\/reqres.in\/img\/faces\/12-image.jpg\"\n    }\n  ],\n  \"support\": {\n    \"url\": \"https:\/\/reqres.in\/#support-heading\",\n    \"text\": \"To keep ReqRes free, contributions towards server costs are appreciated!\"\n  }\n}\n \n"}],"executorName":"main","line":22,"name":"Get a user wit background and param","description":"","durationMillis":164.1998,"startTime":1687626429319,"failed":false,"refId":"[3:22]","endTime":1687626429484,"exampleIndex":-1}],"callDepth":0,"name":"Ger user on regres","description":"","resultDate":"2023-06-24 12:07:09 p. m.","durationMillis":965.5189,"passedCount":3}